<?xml version="1.0" encoding="UTF-8" standalone="no"?>
<svg
	xmlns:xlink="http://www.w3.org/1999/xlink"
	width="400"
	height="400"
	viewBox="0 0 400 400"
	version="1.1"
	id="svg1"
	xmlns="http://www.w3.org/2000/svg">
	<defs
		id="defs1">
		<linearGradient
			id="linearGradient6">
			<stop
				style="stop-color:#4d249a;stop-opacity:1;"
				offset="0"
				id="stop5"/>
			<stop
				style="stop-color:#972aa7;stop-opacity:1;"
				offset="1"
				id="stop6"/>
		</linearGradient>
		<linearGradient
			id="linearGradient1">
			<stop
				style="stop-color:#5226a2;stop-opacity:1;"
				offset="0"
				id="stop1"/>
			<stop
				style="stop-color:#852da0;stop-opacity:1;"
				offset="1"
				id="stop2"/>
		</linearGradient>
		<linearGradient
			id="linearGradient13">
			<stop
				style="stop-color:#0b8bea;stop-opacity:1;"
				offset="0"
				id="stop13"/>
			<stop
				style="stop-color:#11d2ed;stop-opacity:1;"
				offset="1"
				id="stop14"/>
		</linearGradient>
		<linearGradient
			xlink:href="#linearGradient13"
			id="linearGradient14"
			x1="241.17003"
			y1="283.41473"
			x2="242.69476"
			y2="105.93424"
			gradientUnits="userSpaceOnUse"
			gradientTransform="matrix(1.2715214,0,0,1.2715214,-52.39746,-43.00102)"/>
		<linearGradient
			xlink:href="#linearGradient1"
			id="linearGradient2"
			x1="156.07582"
			y1="3.1215208"
			x2="251.95094"
			y2="399.10815"
			gradientUnits="userSpaceOnUse"/>
		<linearGradient
			xlink:href="#linearGradient13"
			id="linearGradient3"
			gradientUnits="userSpaceOnUse"
			gradientTransform="matrix(1.2715214,0,0,1.2715214,-49.761695,-40.852208)"
			x1="241.17003"
			y1="283.41473"
			x2="242.69476"
			y2="105.93424"/>
		<linearGradient
			xlink:href="#linearGradient6"
			id="linearGradient5"
			gradientUnits="userSpaceOnUse"
			x1="156.07582"
			y1="3.1215208"
			x2="251.95094"
			y2="399.10815"
			gradientTransform="matrix(1.4200707,0,0,1.4200707,-84.053693,-83.525091)"/>
	</defs>
	<!-- region Backgrounds -->
	<g
		id="layer3"
		style="display:inline">

		<!-- Incircle -->
		<ellipse
			style="display:inline;opacity:1;mix-blend-mode:normal;fill:url(#linearGradient2);fill-opacity:1;stroke:none;stroke-width:1.002"
			id="ellipse4"
			cx="199.55406"
			cy="199.77704"
			rx="199.55406"
			ry="199.77704"/>

		<!-- Excircle -->
		<ellipse
			style="display:inline;opacity:1;mix-blend-mode:normal;fill:url(#linearGradient5);fill-opacity:1;stroke:none;stroke-width:1.42292"
			id="ellipse5"
			cx="199.32718"
			cy="200.17241"
			rx="283.38089"
			ry="283.69751"/>
	</g>
	<!-- endregion -->
	<!-- Shadows -->
	<g
		id="layer4"
		style="display:inline;opacity:0.5;mix-blend-mode:normal">

		<!-- Shadow O -->
		<text
			xml:space="preserve"
			style="font-size:305.166px;font-family:'JetBrains Mono';-inkscape-font-specification:'JetBrains Mono';display:inline;opacity:1;mix-blend-mode:normal;fill:#000000;stroke:#0f1893;stroke-width:1.27407;stroke-dasharray:none;stroke-opacity:1"
			x="60.175957"
			y="317.70291"
			id="text1-6"><tspan
         id="tspan1-1"
         x="60.175957"
         y="317.70291"
         style="stroke-width:1.27407"><tspan
           style="font-size:305.166px;fill:#0f1893;fill-opacity:1;stroke:#0f1893;stroke-width:1.27407;stroke-dasharray:none;stroke-opacity:1"
           id="tspan2-8">O</tspan><tspan
			style="font-size:305.166px;fill:#0980f3;fill-opacity:1;stroke:#0f1893;stroke-width:1.27407;stroke-opacity:1"
			id="tspan3-7"/></tspan></text>

		<!-- Shadow S -->
		<text
			xml:space="preserve"
			style="font-size:305.166px;font-family:'JetBrains Mono';-inkscape-font-specification:'JetBrains Mono';display:inline;fill:url(#linearGradient3);stroke-width:1.27407;stroke-dasharray:none"
			x="167.44502"
			y="318.06583"
			id="text1-2-9"><tspan
         id="tspan1-9-3"
         x="167.44502"
         y="318.06583"
         style="fill:url(#linearGradient3);stroke-width:1.27407"><tspan
           style="font-size:305.166px;fill:url(#linearGradient3);fill-opacity:1;stroke-width:1.27407"
           id="tspan3-9-6">S</tspan></tspan></text>
	</g>
	<!-- endregion -->
	<!-- region Main text -->
	<g
		id="layer1"
		style="display:inline">

		<!-- Main O -->
		<text
			xml:space="preserve"
			style="font-size:305.166px;font-family:'JetBrains Mono';-inkscape-font-specification:'JetBrains Mono';display:inline;fill:#000000;stroke:#0f1893;stroke-width:1.27407;stroke-dasharray:none;stroke-opacity:1"
			x="58.169628"
			y="315.91675"
			id="text1"><tspan
         id="tspan1"
         x="58.169628"
         y="315.91675"
         style="stroke-width:1.27407"><tspan
           style="font-size:305.166px;fill:#0f1893;fill-opacity:1;stroke:#0f1893;stroke-width:1.27407;stroke-dasharray:none;stroke-opacity:1"
           id="tspan2">O</tspan><tspan
			style="font-size:305.166px;fill:#0980f3;fill-opacity:1;stroke:#0f1893;stroke-width:1.27407;stroke-opacity:1"
			id="tspan3"/></tspan></text>

		<!-- Main S -->
		<text
			xml:space="preserve"
			style="font-size:305.166px;font-family:'JetBrains Mono';-inkscape-font-specification:'JetBrains Mono';display:inline;fill:url(#linearGradient14);stroke-width:1.27407;stroke-dasharray:none"
			x="164.80923"
			y="315.91705"
			id="text1-2"><tspan
         id="tspan1-9"
         x="164.80923"
         y="315.91705"
         style="fill:url(#linearGradient14);stroke-width:1.27407"><tspan
           style="font-size:305.166px;fill:url(#linearGradient14);fill-opacity:1;stroke-width:1.27407"
           id="tspan3-9">S</tspan></tspan></text>
	</g>
	<!-- endregion -->
	<!-- region Mask -->
	<g
		id="layer2"
		style="display:inline">
		<path
			id="text1-5"
			style="font-size:240px;font-family:'JetBrains Mono';-inkscape-font-specification:'JetBrains Mono';fill:#0f1893;fill-opacity:1;stroke-width:1.27407;stroke-dasharray:none"
			d="m 112.15281,199.26602 c -2.23925,0.0681 -4.47848,0.14488 -6.7177,0.2111 -6.913168,0.20558 -13.830535,0.37614 -20.746668,0.57119 v 51.99579 c 0,21.56491 5.797795,38.14709 17.394018,49.74331 11.59622,11.59622 27.36473,17.39402 47.30208,17.39402 19.93735,0 35.70338,-5.7978 47.29961,-17.39402 11.59622,-11.59622 17.39401,-28.1784 17.39401,-49.74331 v -45.25325 c -2.75802,0.18397 -5.52806,0.24679 -8.28724,0.25083 -6.40343,-0.0823 -12.79486,-0.37984 -19.17712,-0.82698 v 48.88155 c 0,12.61344 -3.25475,22.38011 -9.76489,29.29714 -6.30675,6.71363 -15.46126,10.07034 -27.46437,10.07034 -11.79967,0 -20.95671,-3.35671 -27.46685,-10.07034 -6.51019,-6.91703 -9.76488,-16.6837 -9.76488,-29.29714 z"/>
	</g>
	<!-- endregion -->
</svg>
